{
  "swagger": "2.0",
  "info": {
    "title": "kudo.admin.api.proto",
    "version": "version not set"
  },
  "consumes": [
    "application/json"
  ],
  "produces": [
    "application/json"
  ],
  "paths": {
    "/admin/api/finishing-option": {
      "post": {
        "summary": "FinishingOption",
        "operationId": "KudoService_CreateFinishingOption",
        "responses": {
          "200": {
            "description": "A successful response.",
            "schema": {
              "$ref": "#/definitions/protoCreateFinishingOptionResponse"
            }
          },
          "default": {
            "description": "An unexpected error response",
            "schema": {
              "$ref": "#/definitions/runtimeError"
            }
          }
        },
        "parameters": [
          {
            "name": "body",
            "in": "body",
            "required": true,
            "schema": {
              "$ref": "#/definitions/protoCreateFinishingOptionRequest"
            }
          }
        ],
        "tags": [
          "KudoService"
        ]
      }
    },
    "/admin/api/finishing-option/{id}": {
      "patch": {
        "operationId": "KudoService_UpdateFinishingOption",
        "responses": {
          "200": {
            "description": "A successful response.",
            "schema": {
              "$ref": "#/definitions/protoUpdateFinishingOptionResponse"
            }
          },
          "default": {
            "description": "An unexpected error response",
            "schema": {
              "$ref": "#/definitions/runtimeError"
            }
          }
        },
        "parameters": [
          {
            "name": "id",
            "in": "path",
            "required": true,
            "type": "string",
            "format": "int64"
          },
          {
            "name": "body",
            "in": "body",
            "required": true,
            "schema": {
              "$ref": "#/definitions/protoUpdateFinishingOptionRequest"
            }
          }
        ],
        "tags": [
          "KudoService"
        ]
      }
    },
    "/admin/api/p/finishing-option": {
      "get": {
        "operationId": "KudoService_GetFinishingOptions",
        "responses": {
          "200": {
            "description": "A successful response.",
            "schema": {
              "$ref": "#/definitions/protoGetFinishingOptionsResponse"
            }
          },
          "default": {
            "description": "An unexpected error response",
            "schema": {
              "$ref": "#/definitions/runtimeError"
            }
          }
        },
        "tags": [
          "KudoService"
        ]
      }
    },
    "/admin/api/p/printing-method": {
      "get": {
        "operationId": "KudoService_GetPrintingMethods",
        "responses": {
          "200": {
            "description": "A successful response.",
            "schema": {
              "$ref": "#/definitions/protoGetPrintingMethodsResponse"
            }
          },
          "default": {
            "description": "An unexpected error response",
            "schema": {
              "$ref": "#/definitions/runtimeError"
            }
          }
        },
        "tags": [
          "KudoService"
        ]
      }
    },
    "/admin/api/p/product-category": {
      "get": {
        "operationId": "KudoService_GetProductCategories",
        "responses": {
          "200": {
            "description": "A successful response.",
            "schema": {
              "$ref": "#/definitions/protoGetProductCategoriesResponse"
            }
          },
          "default": {
            "description": "An unexpected error response",
            "schema": {
              "$ref": "#/definitions/runtimeError"
            }
          }
        },
        "tags": [
          "KudoService"
        ]
      }
    },
    "/admin/api/printing-method": {
      "post": {
        "summary": "PrintingMethod",
        "operationId": "KudoService_CreatePrintingMethod",
        "responses": {
          "200": {
            "description": "A successful response.",
            "schema": {
              "$ref": "#/definitions/protoCreatePrintingMethodResponse"
            }
          },
          "default": {
            "description": "An unexpected error response",
            "schema": {
              "$ref": "#/definitions/runtimeError"
            }
          }
        },
        "parameters": [
          {
            "name": "body",
            "in": "body",
            "required": true,
            "schema": {
              "$ref": "#/definitions/protoCreatePrintingMethodRequest"
            }
          }
        ],
        "tags": [
          "KudoService"
        ]
      }
    },
    "/admin/api/printing-method/{id}": {
      "patch": {
        "operationId": "KudoService_UpdatePrintingMethod",
        "responses": {
          "200": {
            "description": "A successful response.",
            "schema": {
              "$ref": "#/definitions/protoUpdatePrintingMethodResponse"
            }
          },
          "default": {
            "description": "An unexpected error response",
            "schema": {
              "$ref": "#/definitions/runtimeError"
            }
          }
        },
        "parameters": [
          {
            "name": "id",
            "in": "path",
            "required": true,
            "type": "string",
            "format": "int64"
          },
          {
            "name": "body",
            "in": "body",
            "required": true,
            "schema": {
              "$ref": "#/definitions/protoUpdatePrintingMethodRequest"
            }
          }
        ],
        "tags": [
          "KudoService"
        ]
      }
    },
    "/admin/api/product-category": {
      "post": {
        "summary": "ProductCategory",
        "operationId": "KudoService_CreateProductCategory",
        "responses": {
          "200": {
            "description": "A successful response.",
            "schema": {
              "$ref": "#/definitions/protoCreateProductCategoryResponse"
            }
          },
          "default": {
            "description": "An unexpected error response",
            "schema": {
              "$ref": "#/definitions/runtimeError"
            }
          }
        },
        "parameters": [
          {
            "name": "body",
            "in": "body",
            "required": true,
            "schema": {
              "$ref": "#/definitions/protoCreateProductCategoryRequest"
            }
          }
        ],
        "tags": [
          "KudoService"
        ]
      }
    },
    "/admin/api/product-category/{id}": {
      "patch": {
        "operationId": "KudoService_UpdateProductCategory",
        "responses": {
          "200": {
            "description": "A successful response.",
            "schema": {
              "$ref": "#/definitions/protoUpdateProductCategoryResponse"
            }
          },
          "default": {
            "description": "An unexpected error response",
            "schema": {
              "$ref": "#/definitions/runtimeError"
            }
          }
        },
        "parameters": [
          {
            "name": "id",
            "in": "path",
            "required": true,
            "type": "string",
            "format": "int64"
          },
          {
            "name": "body",
            "in": "body",
            "required": true,
            "schema": {
              "$ref": "#/definitions/protoUpdateProductCategoryRequest"
            }
          }
        ],
        "tags": [
          "KudoService"
        ]
      }
    }
  },
  "definitions": {
    "protoCreateFinishingOptionRequest": {
      "type": "object",
      "properties": {
        "finishingOption": {
          "$ref": "#/definitions/protoFinishingOption"
        }
      }
    },
    "protoCreateFinishingOptionResponse": {
      "type": "object",
      "properties": {
        "finishingOption": {
          "$ref": "#/definitions/protoFinishingOption"
        }
      }
    },
    "protoCreatePrintingMethodRequest": {
      "type": "object",
      "properties": {
        "printingMethod": {
          "$ref": "#/definitions/protoPrintingMethod"
        }
      }
    },
    "protoCreatePrintingMethodResponse": {
      "type": "object",
      "properties": {
        "printingMethod": {
          "$ref": "#/definitions/protoPrintingMethod"
        }
      }
    },
    "protoCreateProductCategoryRequest": {
      "type": "object",
      "properties": {
        "productCategory": {
          "$ref": "#/definitions/protoProductCategory"
        }
      }
    },
    "protoCreateProductCategoryResponse": {
      "type": "object",
      "properties": {
        "productCategory": {
          "$ref": "#/definitions/protoProductCategory"
        }
      }
    },
    "protoFinishingOption": {
      "type": "object",
      "properties": {
        "id": {
          "type": "string",
          "format": "int64"
        },
        "name": {
          "type": "string"
        }
      },
      "title": "Finishing Options"
    },
    "protoGetFinishingOptionsByIDsResponse": {
      "type": "object",
      "properties": {
        "data": {
          "type": "array",
          "items": {
            "$ref": "#/definitions/protoFinishingOption"
          }
        }
      }
    },
    "protoGetFinishingOptionsResponse": {
      "type": "object",
      "properties": {
        "data": {
          "type": "array",
          "items": {
            "$ref": "#/definitions/protoFinishingOption"
          }
        }
      }
    },
    "protoGetPrintingMethodsByIDsResponse": {
      "type": "object",
      "properties": {
        "data": {
          "type": "array",
          "items": {
            "$ref": "#/definitions/protoPrintingMethod"
          }
        }
      }
    },
    "protoGetPrintingMethodsResponse": {
      "type": "object",
      "properties": {
        "data": {
          "type": "array",
          "items": {
            "$ref": "#/definitions/protoPrintingMethod"
          }
        }
      }
    },
    "protoGetProductCategoriesByIDsResponse": {
      "type": "object",
      "properties": {
        "data": {
          "type": "array",
          "items": {
            "$ref": "#/definitions/protoProductCategory"
          }
        }
      }
    },
    "protoGetProductCategoriesResponse": {
      "type": "object",
      "properties": {
        "data": {
          "type": "array",
          "items": {
            "$ref": "#/definitions/protoProductCategory"
          }
        }
      }
    },
    "protoPrintingMethod": {
      "type": "object",
      "properties": {
        "id": {
          "type": "string",
          "format": "int64"
        },
        "name": {
          "type": "string"
        }
      },
      "title": "Printing Methods"
    },
    "protoProductCategory": {
      "type": "object",
      "properties": {
        "id": {
          "type": "string",
          "format": "int64"
        },
        "name": {
          "type": "string"
        }
      },
      "title": "Product Category"
    },
    "protoUpdateFinishingOptionRequest": {
      "type": "object",
      "properties": {
        "id": {
          "type": "string",
          "format": "int64"
        },
        "finishingOption": {
          "$ref": "#/definitions/protoFinishingOption"
        }
      }
    },
    "protoUpdateFinishingOptionResponse": {
      "type": "object",
      "properties": {
        "finishingOption": {
          "$ref": "#/definitions/protoFinishingOption"
        }
      }
    },
    "protoUpdatePrintingMethodRequest": {
      "type": "object",
      "properties": {
        "id": {
          "type": "string",
          "format": "int64"
        },
        "printingMethod": {
          "$ref": "#/definitions/protoPrintingMethod"
        }
      }
    },
    "protoUpdatePrintingMethodResponse": {
      "type": "object",
      "properties": {
        "printingMethod": {
          "$ref": "#/definitions/protoPrintingMethod"
        }
      }
    },
    "protoUpdateProductCategoryRequest": {
      "type": "object",
      "properties": {
        "id": {
          "type": "string",
          "format": "int64"
        },
        "productCategory": {
          "$ref": "#/definitions/protoProductCategory"
        }
      }
    },
    "protoUpdateProductCategoryResponse": {
      "type": "object",
      "properties": {
        "productCategory": {
          "$ref": "#/definitions/protoProductCategory"
        }
      }
    },
    "protobufAny": {
      "type": "object",
      "properties": {
        "type_url": {
          "type": "string"
        },
        "value": {
          "type": "string",
          "format": "byte"
        }
      }
    },
    "runtimeError": {
      "type": "object",
      "properties": {
        "error": {
          "type": "string"
        },
        "code": {
          "type": "integer",
          "format": "int32"
        },
        "message": {
          "type": "string"
        },
        "details": {
          "type": "array",
          "items": {
            "$ref": "#/definitions/protobufAny"
          }
        }
      }
    }
  }
}
